What is polar bear,Definition
What is bear,Definition
What is polar,Definition
What is Global warming,Definition
What is your name,Zbear
What is your food,food
What is Zbear,Zbear
What do you eat,food
What is your color,color
What is this,Definition
What are you doing,Zbear
What time is it,time
What is the temperature at North pole,temp
What is the temperature at South pole,temp
What is your friend,animal
What is your favorite sport,Zbear
What is your favorite color,Zbear
What is your favorite hobby,Zbear
What is your gender,Zbear
What is your favorite game,Zbear
What is your favorite subject,Zbear
What is your parrent,Zbear
What is your facebook,Zbear
What is your twitter,Zbear
What is your instagram,Zbear
What is your favorite song,Zbear
What is your home,Zbear
What is your favorite movie,Zbear
What is your personality,Zbear
What is Earth,Definition
How old are you,Zbear
How are you,Zbear
How much do you have,Zbear
How many polar bear,number
How long is a polar bear's tail,number
How many leg do polar bear have,number
How many teeth do you have,number
How many pawns do you have,number
How many ears do you have,number
How many claws do you have,number
How many tail do you have,number
How fast can you run,number
How fast can you swim,number
How long can you live,number
How do you eat,description
How do you cook,description
Where are you come from,location
Where do you live,location
Where do you eat,location
Where is your home,location
Where do you poop,location
Where do you pee,location
Where do you bath,location
Where do you play,location
Where do you sleep,location
Where do you go,location
Where do you exercise,location
when is your birthday,date
when do you sleep,Zbear
when do you eat,Zbear
when do you poop,Zbear
when do you pee,Zbear
when do you play,Zbear
when do you bath,Zbear
Why do you eat fish,description
Why do you not eat pig,description
Who is you father,animal
Who is your mother,animal
Who is your mom,animal
Who is your dad,animal
Who is your girlfriend,animal
Who is your love,animal
Who is your teacher,animal
Who is your favorite football player,human
Who is your brother,animal
Who is your sister,animal
Who is your grandmother,animal
Who is your grandfather,animal
Can you fly,yn
Can you run,yn
Can you walk,yn
Can you sleep,yn
Can you swim,yn
Can you poop,yn
Can you pee,yn
Can you jump,yn
Can you wake up,yn
Can you read,yn
Can you write,yn
Can you talk,yn
Can you play football,yn
Can you die,yn
Can you play computer,yn
Can you play basketball,yn
Can you cook,yn
Can you bake,yn
Can you hug me,yn
Can you ride a bike,yn
Can you laugh,yn
Can you cry,yn
Can you bark,yn
Can you change your color,yn
Can you eat ......,yn
Can you quit,yn
Can you excercise,yn
Can you travel,yn
Can you dig,yn
Can you sing a song,yn
Can you help me,yn
Can i feed you,yn
Can i pet you,yn
Can i kill you,yn
Can i play with you,yn
Can i eat you,yn
Can you love me,yn
